designs/rtl/lif_acc/LIF_acceleralor_255/sverilog/Neuromorphic_design_tb.vcd
$date
	Wed Oct  2 20:18:20 2024
$end
$version
	Icarus Verilog
$end
$timescale
	1ps
$end
$scope module Neuromorphic_design_tb $end
$var reg 1 ! clk_i $end
$var reg 1 " membrane_potential_syn_start $end
$var reg 1 # rst_i $end
$scope module uut $end
$var wire 1 ! clk_i $end
$var wire 1 " membrane_potential_syn_start $end
$var wire 1 # rst_i $end
$var reg 4 $ current_syn_state [3:0] $end
$var reg 1 % gen0_rtl_var $end
$var reg 1 & gen19_cyclix_genvar $end
$var reg 1 ' gen1_rtl_var $end
$var reg 1 ( gen20_cyclix_genvar $end
$var reg 1 ) gen21_cyclix_genvar $end
$var reg 1 * gen22_cyclix_genvar $end
$var reg 1 + gen23_cyclix_genvar $end
$var reg 1 , gen24_cyclix_genvar $end
$var reg 1 - gen25_cyclix_genvar $end
$var reg 1 . gen26_cyclix_genvar $end
$var reg 33 / gen27_cyclix_genvar [32:0] $end
$var reg 9 0 gen28_cyclix_genvar [8:0] $end
$var reg 1 1 gen29_cyclix_genvar $end
$var reg 1 2 gen2_rtl_var $end
$var reg 1 3 gen30_cyclix_genvar $end
$var reg 1 4 gen31_cyclix_genvar $end
$var reg 1 5 gen32_cyclix_genvar $end
$var reg 1 6 gen33_cyclix_genvar $end
$var reg 1 7 gen34_cyclix_genvar $end
$var reg 33 8 gen35_cyclix_genvar [32:0] $end
$var reg 1 9 gen36_cyclix_genvar $end
$var reg 1 : gen37_cyclix_genvar $end
$var reg 1 ; gen3_rtl_var $end
$var reg 1 < gen4_rtl_var $end
$var reg 1 = gen5_rtl_var $end
$var reg 1 > gen6_rtl_var $end
$var reg 1 ? gen7_rtl_var $end
$var reg 4 @ gensticky_current_syn_state [3:0] $end
$var reg 3 A gensticky_next_syn_state [2:0] $end
$var reg 10 B gensticky_postsyn_counter_synaptic [9:0] $end
$var reg 10 C gensticky_presyn_counter_synaptic [9:0] $end
$var reg 1 D gensticky_reg_syn_start $end
$var reg 3 E next_syn_state [2:0] $end
$var reg 10 F postsyn_counter_synaptic [9:0] $end
$var reg 10 G presyn_counter_synaptic [9:0] $end
$var reg 1 H reg_syn_start $end
$upscope $end
$scope begin $ivl_for_loop0 $end
$var integer 32 I i [31:0] $end
$scope begin $ivl_for_loop1 $end
$var integer 32 J j [31:0] $end
$upscope $end
$upscope $end
$upscope $end
$scope module Neuromorphic_design_tb $end
$scope module uut $end
$upscope $end
$upscope $end
$enddefinitions $end
#0
$dumpvars
b0 J
b0 I
xH
bx G
bx F
bx E
xD
bx C
bx B
bx A
bx @
x?
0>
x=
0<
0;
x:
x9
b0 8
07
06
x5
x4
03
x2
01
b0 0
b0 /
0.
0-
x,
x+
0*
0)
x(
0'
x&
x%
b0xxx $
1#
x"
0!
$end
#5000
0?
0:
09
0=
05
04
02
0,
0+
b0 $
xH
b0 G
b0 E
b0 F
0D
b0 @
b0 A
b0 B
b0 C
1!
#10000
0!
#15000
1!
#20000
0!
0#
#25000
xD
1!
#30000
0!
#35000
1!
#40000
0!
#45000
1!
#50000
0!
#55000
1!
#60000
0!
#65000
1!
#70000
0!
#75000
1!
#80000
0!
#85000
1!
#90000
0!
#95000
1!
#100000
0!
#105000
1!
#110000
0!
#115000
1!
#120000
0!
1#
#125000
xH
0D
1!
#130000
0!
#135000
1!
#140000
b1 E
1'
1*
1)
1%
1(
1&
1H
0!
b1010 I
b1010 J
1"
0#
#145000
b1 0
b1 G
b1 /
1;
1.
1-
12
1,
1+
b1 $
0'
0*
0)
b1 E
1D
b1 A
1!
#150000
0!
#155000
1;
1.
1-
b10 0
b10 G
b10 /
b1 E
b1 C
b1 @
1!
#160000
0!
#165000
1;
1.
1-
b11 0
b11 G
b11 /
b1 E
b10 C
1!
#170000
0!
#175000
1;
1.
1-
b100 0
b100 G
b100 /
b1 E
b11 C
1!
#180000
0!
#185000
1;
1.
1-
b101 0
b101 G
b101 /
b1 E
b100 C
1!
#190000
0!
#195000
1;
1.
1-
b110 0
b110 G
b110 /
b1 E
b101 C
1!
#200000
0!
#205000
1;
1.
1-
b111 0
b111 G
b111 /
b1 E
b110 C
1!
#210000
0!
#215000
1;
1.
1-
b1000 0
b1000 G
b1000 /
b1 E
b111 C
1!
#220000
0!
#225000
1<
13
11
1;
1.
1-
b1001 0
b1001 G
b1001 /
b10 E
b1000 C
1!
#230000
0!
#235000
b1 F
b1 8
1>
17
16
1=
15
14
02
0,
0+
b10 $
0<
03
01
0;
0.
0-
b0 0
b0 G
b0 /
b1 E
b1001 C
b10 A
1!
#240000
0!
#245000
0=
05
04
b1 0
b1 G
b1 /
1;
1.
1-
12
1,
1+
b1 $
0>
07
06
b0 8
b1 E
b1 F
b10 @
b1 A
b1 B
b0 C
1!
#250000
0!
#255000
1;
1.
1-
b10 0
b10 G
b10 /
b1 E
b1 F
b1 C
b1 @
1!
#260000
0!
#265000
1;
1.
1-
b11 0
b11 G
b11 /
b1 E
b1 F
b10 C
1!
#270000
0!
#275000
1;
1.
1-
b100 0
b100 G
b100 /
b1 E
b1 F
b11 C
1!
#280000
0!
#285000
1;
1.
1-
b101 0
b101 G
b101 /
b1 E
b1 F
b100 C
1!
#290000
0!
#295000
1;
1.
1-
b110 0
b110 G
b110 /
b1 E
b1 F
b101 C
1!
#300000
0!
#305000
1;
1.
1-
b111 0
b111 G
b111 /
b1 E
b1 F
b110 C
1!
#310000
0!
#315000
1;
1.
1-
b1000 0
b1000 G
b1000 /
b1 E
b1 F
b111 C
1!
#320000
0!
#325000
1<
13
11
1;
1.
1-
b1001 0
b1001 G
b1001 /
b10 E
b1 F
b1000 C
1!
#330000
0!
#335000
b10 8
1>
17
16
1=
15
14
02
0,
0+
b10 $
0<
03
01
0;
0.
0-
b0 0
b0 G
b0 /
b1 E
b10 F
b1001 C
b10 A
1!
#340000
0!
#345000
0=
05
04
b1 0
b1 G
b1 /
1;
1.
1-
12
1,
1+
b1 $
0>
07
06
b0 8
b1 E
b10 F
b10 @
b1 A
b10 B
b0 C
1!
#350000
0!
#355000
1;
1.
1-
b10 0
b10 G
b10 /
b1 E
b10 F
b1 C
b1 @
1!
#360000
0!
#365000
1;
1.
1-
b11 0
b11 G
b11 /
b1 E
b10 F
b10 C
1!
#370000
0!
#375000
1;
1.
1-
b100 0
b100 G
b100 /
b1 E
b10 F
b11 C
1!
#380000
0!
#385000
1;
1.
1-
b101 0
b101 G
b101 /
b1 E
b10 F
b100 C
1!
#390000
0!
#395000
1;
1.
1-
b110 0
b110 G
b110 /
b1 E
b10 F
b101 C
1!
#400000
0!
#405000
1;
1.
1-
b111 0
b111 G
b111 /
b1 E
b10 F
b110 C
1!
#410000
0!
#415000
1;
1.
1-
b1000 0
b1000 G
b1000 /
b1 E
b10 F
b111 C
1!
#420000
0!
#425000
1<
13
11
1;
1.
1-
b1001 0
b1001 G
b1001 /
b10 E
b10 F
b1000 C
1!
#430000
0!
#435000
b11 8
1>
17
16
1=
15
14
02
0,
0+
b10 $
0<
03
01
0;
0.
0-
b0 0
b0 G
b0 /
b1 E
b11 F
b1001 C
b10 A
1!
#440000
0!
#445000
0=
05
04
b1 0
b1 G
b1 /
1;
1.
1-
12
1,
1+
b1 $
0>
07
06
b0 8
b1 E
b11 F
b10 @
b1 A
b11 B
b0 C
1!
#450000
0!
#455000
1;
1.
1-
b10 0
b10 G
b10 /
b1 E
b11 F
b1 C
b1 @
1!
#460000
0!
#465000
1;
1.
1-
b11 0
b11 G
b11 /
b1 E
b11 F
b10 C
1!
#470000
0!
#475000
1;
1.
1-
b100 0
b100 G
b100 /
b1 E
b11 F
b11 C
1!
#480000
0!
#485000
1;
1.
1-
b101 0
b101 G
b101 /
b1 E
b11 F
b100 C
1!
#490000
0!
#495000
1;
1.
1-
b110 0
b110 G
b110 /
b1 E
b11 F
b101 C
1!
#500000
0!
#505000
1;
1.
1-
b111 0
b111 G
b111 /
b1 E
b11 F
b110 C
1!
#510000
0!
#515000
1;
1.
1-
b1000 0
b1000 G
b1000 /
b1 E
b11 F
b111 C
1!
#520000
0!
#525000
1<
13
11
1;
1.
1-
b1001 0
b1001 G
b1001 /
b10 E
b11 F
b1000 C
1!
#530000
0!
#535000
b100 8
1>
17
16
1=
15
14
02
0,
0+
b10 $
0<
03
01
0;
0.
0-
b0 0
b0 G
b0 /
b1 E
b100 F
b1001 C
b10 A
1!
#540000
0!
#545000
0=
05
04
b1 0
b1 G
b1 /
1;
1.
1-
12
1,
1+
b1 $
0>
07
06
b0 8
b1 E
b100 F
b10 @
b1 A
b100 B
b0 C
1!
#550000
0!
#555000
1;
1.
1-
b10 0
b10 G
b10 /
b1 E
b100 F
b1 C
b1 @
1!
#560000
0!
#565000
1;
1.
1-
b11 0
b11 G
b11 /
b1 E
b100 F
b10 C
1!
#570000
0!
#575000
1;
1.
1-
b100 0
b100 G
b100 /
b1 E
b100 F
b11 C
1!
#580000
0!
#585000
1;
1.
1-
b101 0
b101 G
b101 /
b1 E
b100 F
b100 C
1!
#590000
0!
#595000
1;
1.
1-
b110 0
b110 G
b110 /
b1 E
b100 F
b101 C
1!
#600000
0!
#605000
1;
1.
1-
b111 0
b111 G
b111 /
b1 E
b100 F
b110 C
1!
#610000
0!
#615000
1;
1.
1-
b1000 0
b1000 G
b1000 /
b1 E
b100 F
b111 C
1!
#620000
0!
#625000
1<
13
11
1;
1.
1-
b1001 0
b1001 G
b1001 /
b10 E
b100 F
b1000 C
1!
#630000
0!
#635000
b101 8
1>
17
16
1=
15
14
02
0,
0+
b10 $
0<
03
01
0;
0.
0-
b0 0
b0 G
b0 /
b1 E
b101 F
b1001 C
b10 A
1!
#640000
0!
#645000
0=
05
04
b1 0
b1 G
b1 /
1;
1.
1-
12
1,
1+
b1 $
0>
07
06
b0 8
b1 E
b101 F
b10 @
b1 A
b101 B
b0 C
1!
#650000
0!
#655000
1;
1.
1-
b10 0
b10 G
b10 /
b1 E
b101 F
b1 C
b1 @
1!
#660000
0!
#665000
1;
1.
1-
b11 0
b11 G
b11 /
b1 E
b101 F
b10 C
1!
#670000
0!
#675000
1;
1.
1-
b100 0
b100 G
b100 /
b1 E
b101 F
b11 C
1!
#680000
0!
#685000
1;
1.
1-
b101 0
b101 G
b101 /
b1 E
b101 F
b100 C
1!
#690000
0!
#695000
1;
1.
1-
b110 0
b110 G
b110 /
b1 E
b101 F
b101 C
1!
#700000
0!
#705000
1;
1.
1-
b111 0
b111 G
b111 /
b1 E
b101 F
b110 C
1!
#710000
0!
#715000
1;
1.
1-
b1000 0
b1000 G
b1000 /
b1 E
b101 F
b111 C
1!
#720000
0!
#725000
1<
13
11
1;
1.
1-
b1001 0
b1001 G
b1001 /
b10 E
b101 F
b1000 C
1!
#730000
0!
#735000
b110 8
1>
17
16
1=
15
14
02
0,
0+
b10 $
0<
03
01
0;
0.
0-
b0 0
b0 G
b0 /
b1 E
b110 F
b1001 C
b10 A
1!
#740000
0!
#745000
0=
05
04
b1 0
b1 G
b1 /
1;
1.
1-
12
1,
1+
b1 $
0>
07
06
b0 8
b1 E
b110 F
b10 @
b1 A
b110 B
b0 C
1!
#750000
0!
#755000
1;
1.
1-
b10 0
b10 G
b10 /
b1 E
b110 F
b1 C
b1 @
1!
#760000
0!
#765000
1;
1.
1-
b11 0
b11 G
b11 /
b1 E
b110 F
b10 C
1!
#770000
0!
#775000
1;
1.
1-
b100 0
b100 G
b100 /
b1 E
b110 F
b11 C
1!
#780000
0!
#785000
1;
1.
1-
b101 0
b101 G
b101 /
b1 E
b110 F
b100 C
1!
#790000
0!
#795000
1;
1.
1-
b110 0
b110 G
b110 /
b1 E
b110 F
b101 C
1!
#800000
0!
#805000
1;
1.
1-
b111 0
b111 G
b111 /
b1 E
b110 F
b110 C
1!
#810000
0!
#815000
1;
1.
1-
b1000 0
b1000 G
b1000 /
b1 E
b110 F
b111 C
1!
#820000
0!
#825000
1<
13
11
1;
1.
1-
b1001 0
b1001 G
b1001 /
b10 E
b110 F
b1000 C
1!
#830000
0!
#835000
b111 8
1>
17
16
1=
15
14
02
0,
0+
b10 $
0<
03
01
0;
0.
0-
b0 0
b0 G
b0 /
b1 E
b111 F
b1001 C
b10 A
1!
#840000
0!
#845000
0=
05
04
b1 0
b1 G
b1 /
1;
1.
1-
12
1,
1+
b1 $
0>
07
06
b0 8
b1 E
b111 F
b10 @
b1 A
b111 B
b0 C
1!
#850000
0!
#855000
1;
1.
1-
b10 0
b10 G
b10 /
b1 E
b111 F
b1 C
b1 @
1!
#860000
0!
#865000
1;
1.
1-
b11 0
b11 G
b11 /
b1 E
b111 F
b10 C
1!
#870000
0!
#875000
1;
1.
1-
b100 0
b100 G
b100 /
b1 E
b111 F
b11 C
1!
#880000
0!
#885000
1;
1.
1-
b101 0
b101 G
b101 /
b1 E
b111 F
b100 C
1!
#890000
0!
#895000
1;
1.
1-
b110 0
b110 G
b110 /
b1 E
b111 F
b101 C
1!
#900000
0!
#905000
1;
1.
1-
b111 0
b111 G
b111 /
b1 E
b111 F
b110 C
1!
#910000
0!
#915000
1;
1.
1-
b1000 0
b1000 G
b1000 /
b1 E
b111 F
b111 C
1!
#920000
0!
#925000
1<
13
11
1;
1.
1-
b1001 0
b1001 G
b1001 /
b10 E
b111 F
b1000 C
1!
#930000
0!
#935000
b1000 8
1>
17
16
1=
15
14
02
0,
0+
b10 $
0<
03
01
0;
0.
0-
b0 0
b0 G
b0 /
b1 E
b1000 F
b1001 C
b10 A
1!
#940000
0!
#945000
0=
05
04
b1 0
b1 G
b1 /
1;
1.
1-
12
1,
1+
b1 $
0>
07
06
b0 8
b1 E
b1000 F
b10 @
b1 A
b1000 B
b0 C
1!
#950000
0!
#955000
1;
1.
1-
b10 0
b10 G
b10 /
b1 E
b1000 F
b1 C
b1 @
1!
#960000
0!
#965000
1;
1.
1-
b11 0
b11 G
b11 /
b1 E
b1000 F
b10 C
1!
#970000
0!
#975000
1;
1.
1-
b100 0
b100 G
b100 /
b1 E
b1000 F
b11 C
1!
#980000
0!
#985000
1;
1.
1-
b101 0
b101 G
b101 /
b1 E
b1000 F
b100 C
1!
#990000
0!
#995000
1;
1.
1-
b110 0
b110 G
b110 /
b1 E
b1000 F
b101 C
1!
#1000000
0!
#1005000
1;
1.
1-
b111 0
b111 G
b111 /
b1 E
b1000 F
b110 C
1!
#1010000
0!
#1015000
1;
1.
1-
b1000 0
b1000 G
b1000 /
b1 E
b1000 F
b111 C
1!
#1020000
0!
#1025000
1<
13
11
1;
1.
1-
b1001 0
b1001 G
b1001 /
b10 E
b1000 F
b1000 C
1!
#1030000
0!
#1035000
b1001 8
1>
17
16
1=
15
14
02
0,
0+
b10 $
0<
03
01
0;
0.
0-
b0 0
b0 G
b0 /
b1 E
b1001 F
b1001 C
b10 A
1!
#1040000
0!
#1045000
0=
05
04
b1 0
b1 G
b1 /
1;
1.
1-
12
1,
1+
b1 $
0>
07
06
b0 8
b1 E
b1001 F
b10 @
b1 A
b1001 B
b0 C
1!
#1050000
0!
#1055000
1;
1.
1-
b10 0
b10 G
b10 /
b1 E
b1001 F
b1 C
b1 @
1!
#1060000
0!
#1065000
1;
1.
1-
b11 0
b11 G
b11 /
b1 E
b1001 F
b10 C
1!
#1070000
0!
#1075000
1;
1.
1-
b100 0
b100 G
b100 /
b1 E
b1001 F
b11 C
1!
#1080000
0!
#1085000
1;
1.
1-
b101 0
b101 G
b101 /
b1 E
b1001 F
b100 C
1!
#1090000
0!
#1095000
1;
1.
1-
b110 0
b110 G
b110 /
b1 E
b1001 F
b101 C
1!
#1100000
0!
#1105000
1;
1.
1-
b111 0
b111 G
b111 /
b1 E
b1001 F
b110 C
1!
#1110000
0!
#1115000
1;
1.
1-
b1000 0
b1000 G
b1000 /
b1 E
b1001 F
b111 C
1!
#1120000
0!
#1125000
1<
13
11
1;
1.
1-
b1001 0
b1001 G
b1001 /
b10 E
b1001 F
b1000 C
1!
#1130000
0!
#1135000
1=
15
14
02
0,
0+
b10 $
0<
03
01
0;
0.
0-
b0 0
b1001 G
b0 /
b10 E
b1001 F
b1001 C
b10 A
1!
