designs/rtl/lif_acc/n_core/sverilog/Neuromorphic_design.vcd
$date
	Sat Mar  1 22:34:07 2025
$end
$version
	Icarus Verilog
$end
$timescale
	1ps
$end
$scope module Neuromorphic_design_tb $end
$var reg 1 ! clk $end
$var reg 1 " en $end
$var reg 1 # rst $end
$scope module dut $end
$var wire 1 ! clk_i $end
$var wire 1 " en_core $end
$var wire 1 $ input_queue_genfifo_req_i $end
$var wire 1 % output_queue_genfifo_req_i $end
$var wire 1 # rst_i $end
$var reg 32 & clk_counter [31:0] $end
$var reg 4 ' current_state [3:0] $end
$var reg 1 ( gen0_rtl_var $end
$var reg 1 ) gen1_rtl_var $end
$var reg 1 * gen22_cyclix_genvar $end
$var reg 1 + gen23_cyclix_genvar $end
$var reg 33 , gen24_cyclix_genvar [32:0] $end
$var reg 1 - gen25_cyclix_genvar $end
$var reg 1 . gen26_cyclix_genvar $end
$var reg 1 / gen27_cyclix_genvar $end
$var reg 1 0 gen28_cyclix_genvar $end
$var reg 1 1 gen29_cyclix_genvar $end
$var reg 1 2 gen2_rtl_var $end
$var reg 1 3 gen30_cyclix_genvar $end
$var reg 1 4 gen31_cyclix_genvar $end
$var reg 1 5 gen32_cyclix_genvar $end
$var reg 1 6 gen33_cyclix_genvar $end
$var reg 33 7 gen34_cyclix_genvar [32:0] $end
$var reg 1 8 gen35_cyclix_genvar $end
$var reg 1 9 gen36_cyclix_genvar $end
$var reg 1 : gen37_cyclix_genvar $end
$var reg 1 ; gen38_cyclix_genvar $end
$var reg 1 < gen39_cyclix_genvar $end
$var reg 1 = gen3_rtl_var $end
$var reg 1 > gen40_cyclix_genvar $end
$var reg 33 ? gen41_cyclix_genvar [32:0] $end
$var reg 1 @ gen42_cyclix_genvar $end
$var reg 1 A gen43_cyclix_genvar $end
$var reg 1 B gen4_rtl_var $end
$var reg 1 C gen5_rtl_var $end
$var reg 1 D gen6_rtl_var $end
$var reg 1 E gen7_rtl_var $end
$var reg 1 F gen8_rtl_var $end
$var reg 1 G gen9_rtl_var $end
$var reg 32 H gensticky_clk_counter [31:0] $end
$var reg 4 I gensticky_current_state [3:0] $end
$var reg 32 J gensticky_next_clk_count [31:0] $end
$var reg 3 K gensticky_next_state [2:0] $end
$var reg 10 L gensticky_postsyn_counter [9:0] $end
$var reg 10 M gensticky_presyn_counter [9:0] $end
$var reg 1 N gensticky_reg_en_core $end
$var reg 32 O gensticky_tick [31:0] $end
$var reg 32 P gensticky_tick_period [31:0] $end
$var reg 1 Q input_queue_genfifo_ack_o $end
$var reg 1 R input_queue_genfifo_buf_ack $end
$var reg 1 S input_queue_genfifo_buf_req $end
$var reg 32 T next_clk_count [31:0] $end
$var reg 3 U next_state [2:0] $end
$var reg 1 V output_queue_genfifo_ack_o $end
$var reg 1 W output_queue_genfifo_buf_ack $end
$var reg 1 X output_queue_genfifo_buf_req $end
$var reg 10 Y postsyn_counter [9:0] $end
$var reg 10 Z presyn_counter [9:0] $end
$var reg 1 [ reg_en_core $end
$var reg 32 \ tick [31:0] $end
$var reg 32 ] tick_period [31:0] $end
$upscope $end
$upscope $end
$enddefinitions $end
#0
$dumpvars
b111110100 ]
bx \
0[
bx Z
bx Y
zX
xW
xV
bx U
bx T
zS
xR
xQ
bx P
bx O
xN
bx M
bx L
bx K
bx J
bx I
bx H
xG
0F
xE
0D
0C
xB
xA
x@
b0 ?
0>
0=
0<
x;
x:
09
08
b0 7
06
05
x4
x3
02
01
00
0/
0.
x-
b0 ,
x+
x*
x)
x(
b0xxx '
bx &
z%
z$
1#
0"
0!
$end
#5000
0G
0A
0@
0E
0;
0:
0B
04
03
0)
0-
b1 ,
1(
1+
1*
b0 '
b111110100 ]
b0 Z
b0 U
b0 Y
b1 &
b1 T
b0 \
b0 O
b110010 P
b0 H
b0 J
0N
b0 I
b0 K
b0 L
b0 M
1!
#10000
0!
0#
#15000
0-
b10 &
b10 T
b10 ,
b1 J
b1 H
b111110100 P
1!
#20000
0!
#25000
0-
b11 &
b11 T
b11 ,
b10 H
b10 J
1!
#30000
b1 U
1=
11
10
12
1/
1.
1[
0-
b11 &
b11 T
b11 ,
0!
1"
#35000
b1 Z
b1 7
1C
16
15
1B
14
13
b1 '
0-
0=
01
00
b1 U
b100 &
b100 T
b100 ,
b1 K
1N
b11 J
b11 H
1!
#40000
0!
#45000
0-
1C
16
15
b10 Z
b10 7
b1 U
b101 &
b101 T
b101 ,
b100 H
b100 J
b1 I
b1 M
1!
#50000
0!
#55000
0-
1C
16
15
b11 Z
b11 7
b1 U
b110 &
b110 T
b110 ,
b10 M
b101 J
b101 H
1!
#60000
0!
#65000
0-
1C
16
15
b100 Z
b100 7
b1 U
b111 &
b111 T
b111 ,
b110 H
b110 J
b11 M
1!
#70000
0!
#75000
0-
1C
16
15
b101 Z
b101 7
b1 U
b1000 &
b1000 T
b1000 ,
b100 M
b111 J
b111 H
1!
#80000
0!
#85000
0-
1C
16
15
b110 Z
b110 7
b1 U
b1001 &
b1001 T
b1001 ,
b1000 H
b1000 J
b101 M
1!
#90000
0!
#95000
0-
1C
16
15
b111 Z
b111 7
b1 U
b1010 &
b1010 T
b1010 ,
b110 M
b1001 J
b1001 H
1!
#100000
0!
#105000
0-
1C
16
15
b1000 Z
b1000 7
b1 U
b1011 &
b1011 T
b1011 ,
b1010 H
b1010 J
b111 M
1!
#110000
0!
#115000
0-
1C
16
15
b1001 Z
b1001 7
b1 U
b1100 &
b1100 T
b1100 ,
b1000 M
b1011 J
b1011 H
1!
#120000
0!
#125000
0-
1C
16
15
b1010 Z
b1010 7
b1 U
b1101 &
b1101 T
b1101 ,
b1100 H
b1100 J
b1001 M
1!
#130000
0!
#135000
0-
1C
16
15
b1011 Z
b1011 7
b1 U
b1110 &
b1110 T
b1110 ,
b1010 M
b1101 J
b1101 H
1!
#140000
0!
#145000
0-
1C
16
15
b1100 Z
b1100 7
b1 U
b1111 &
b1111 T
b1111 ,
b1110 H
b1110 J
b1011 M
1!
#150000
0!
#155000
0-
1C
16
15
b1101 Z
b1101 7
b1 U
b10000 &
b10000 T
b10000 ,
b1100 M
b1111 J
b1111 H
1!
#160000
0!
#165000
0-
1C
16
15
b1110 Z
b1110 7
b1 U
b10001 &
b10001 T
b10001 ,
b10000 H
b10000 J
b1101 M
1!
#170000
0!
#175000
0-
1C
16
15
b1111 Z
b1111 7
b1 U
b10010 &
b10010 T
b10010 ,
b1110 M
b10001 J
b10001 H
1!
#180000
02
0/
0.
0[
0-
1C
16
15
b1111 Z
b1111 7
b1 U
b10010 &
b10010 T
b10010 ,
0!
0"
#185000
0-
1C
16
15
b10000 Z
b10000 7
b1 U
b10011 &
b10011 T
b10011 ,
b10010 H
b10010 J
0N
b1111 M
1!
#190000
0!
#195000
0-
1C
16
15
b10001 Z
b10001 7
b1 U
b10100 &
b10100 T
b10100 ,
b10000 M
b10011 J
b10011 H
1!
#200000
0!
#205000
0-
1C
16
15
b10010 Z
b10010 7
b1 U
b10101 &
b10101 T
b10101 ,
b10100 H
b10100 J
b10001 M
1!
#210000
0!
#215000
0-
1C
16
15
b10011 Z
b10011 7
b1 U
b10110 &
b10110 T
b10110 ,
b10010 M
b10101 J
b10101 H
1!
#220000
0!
#225000
0-
1C
16
15
b10100 Z
b10100 7
b1 U
b10111 &
b10111 T
b10111 ,
b10110 H
b10110 J
b10011 M
1!
#230000
0!
#235000
0-
1C
16
15
b10101 Z
b10101 7
b1 U
b11000 &
b11000 T
b11000 ,
b10100 M
b10111 J
b10111 H
1!
#240000
0!
#245000
0-
1C
16
15
b10110 Z
b10110 7
b1 U
b11001 &
b11001 T
b11001 ,
b11000 H
b11000 J
b10101 M
1!
#250000
0!
#255000
0-
1C
16
15
b10111 Z
b10111 7
b1 U
b11010 &
b11010 T
b11010 ,
b10110 M
b11001 J
b11001 H
1!
#260000
0!
#265000
0-
1C
16
15
b11000 Z
b11000 7
b1 U
b11011 &
b11011 T
b11011 ,
b11010 H
b11010 J
b10111 M
1!
#270000
0!
#275000
0-
1C
16
15
b11001 Z
b11001 7
b1 U
b11100 &
b11100 T
b11100 ,
b11000 M
b11011 J
b11011 H
1!
#280000
0!
#285000
0-
1C
16
15
b11010 Z
b11010 7
b1 U
b11101 &
b11101 T
b11101 ,
b11100 H
b11100 J
b11001 M
1!
#290000
0!
#295000
0-
1C
16
15
b11011 Z
b11011 7
b1 U
b11110 &
b11110 T
b11110 ,
b11010 M
b11101 J
b11101 H
1!
#300000
0!
#305000
0-
1C
16
15
b11100 Z
b11100 7
b1 U
b11111 &
b11111 T
b11111 ,
b11110 H
b11110 J
b11011 M
1!
#310000
0!
#315000
0-
1C
16
15
b11101 Z
b11101 7
b1 U
b100000 &
b100000 T
b100000 ,
b11100 M
b11111 J
b11111 H
1!
#320000
0!
#325000
0-
1C
16
15
b11110 Z
b11110 7
b1 U
b100001 &
b100001 T
b100001 ,
b100000 H
b100000 J
b11101 M
1!
#330000
0!
#335000
1D
19
18
0-
1C
16
15
b11111 Z
b11111 7
b10 U
b100010 &
b100010 T
b100010 ,
b11110 M
b100001 J
b100001 H
1!
#340000
0!
#345000
b1 Y
b1 ?
1F
1>
1<
1E
1;
1:
0B
04
03
b10 '
0-
0D
09
08
0C
06
05
b0 Z
b0 7
b1 U
b100011 &
b100011 T
b100011 ,
b100010 H
b100010 J
b10 K
b11111 M
1!
#350000
0!
#355000
0E
0;
0:
b1 Z
b1 7
1C
16
15
1B
14
13
b1 '
0-
0F
0>
0<
b0 ?
b1 U
b1 Y
b100100 &
b100100 T
b100100 ,
b0 M
b1 L
b1 K
b10 I
b100011 J
b100011 H
1!
#360000
0!
#365000
0-
1C
16
15
b10 Z
b10 7
b1 U
b1 Y
b100101 &
b100101 T
b100101 ,
b100100 H
b100100 J
b1 I
b1 M
1!
#370000
0!
#375000
0-
1C
16
15
b11 Z
b11 7
b1 U
b1 Y
b100110 &
b100110 T
b100110 ,
b10 M
b100101 J
b100101 H
1!
#380000
0!
#385000
0-
1C
16
15
b100 Z
b100 7
b1 U
b1 Y
b100111 &
b100111 T
b100111 ,
b100110 H
b100110 J
b11 M
1!
#390000
0!
#395000
0-
1C
16
15
b101 Z
b101 7
b1 U
b1 Y
b101000 &
b101000 T
b101000 ,
b100 M
b100111 J
b100111 H
1!
#400000
0!
#405000
0-
1C
16
15
b110 Z
b110 7
b1 U
b1 Y
b101001 &
b101001 T
b101001 ,
b101000 H
b101000 J
b101 M
1!
#410000
0!
#415000
0-
1C
16
15
b111 Z
b111 7
b1 U
b1 Y
b101010 &
b101010 T
b101010 ,
b110 M
b101001 J
b101001 H
1!
#420000
0!
#425000
0-
1C
16
15
b1000 Z
b1000 7
b1 U
b1 Y
b101011 &
b101011 T
b101011 ,
b101010 H
b101010 J
b111 M
1!
#430000
0!
#435000
0-
1C
16
15
b1001 Z
b1001 7
b1 U
b1 Y
b101100 &
b101100 T
b101100 ,
b1000 M
b101011 J
b101011 H
1!
#440000
0!
#445000
0-
1C
16
15
b1010 Z
b1010 7
b1 U
b1 Y
b101101 &
b101101 T
b101101 ,
b101100 H
b101100 J
b1001 M
1!
#450000
0!
#455000
0-
1C
16
15
b1011 Z
b1011 7
b1 U
b1 Y
b101110 &
b101110 T
b101110 ,
b1010 M
b101101 J
b101101 H
1!
#460000
0!
#465000
0-
1C
16
15
b1100 Z
b1100 7
b1 U
b1 Y
b101111 &
b101111 T
b101111 ,
b101110 H
b101110 J
b1011 M
1!
#470000
0!
#475000
0-
1C
16
15
b1101 Z
b1101 7
b1 U
b1 Y
b110000 &
b110000 T
b110000 ,
b1100 M
b101111 J
b101111 H
1!
#480000
0!
#485000
0-
1C
16
15
b1110 Z
b1110 7
b1 U
b1 Y
b110001 &
b110001 T
b110001 ,
b110000 H
b110000 J
b1101 M
1!
#490000
0!
#495000
0-
1C
16
15
b1111 Z
b1111 7
b1 U
b1 Y
b110010 &
b110010 T
b110010 ,
b1110 M
b110001 J
b110001 H
1!
#500000
0!
#505000
0-
1C
16
15
b10000 Z
b10000 7
b1 U
b1 Y
b110011 &
b110011 T
b110011 ,
b110010 H
b110010 J
b1111 M
1!
#510000
0!
#515000
0-
1C
16
15
b10001 Z
b10001 7
b1 U
b1 Y
b110100 &
b110100 T
b110100 ,
b10000 M
b110011 J
b110011 H
1!
#520000
0!
#525000
0-
1C
16
15
b10010 Z
b10010 7
b1 U
b1 Y
b110101 &
b110101 T
b110101 ,
b110100 H
b110100 J
b10001 M
1!
#530000
0!
#535000
0-
1C
16
15
b10011 Z
b10011 7
b1 U
b1 Y
b110110 &
b110110 T
b110110 ,
b10010 M
b110101 J
b110101 H
1!
#540000
0!
#545000
0-
1C
16
15
b10100 Z
b10100 7
b1 U
b1 Y
b110111 &
b110111 T
b110111 ,
b110110 H
b110110 J
b10011 M
1!
#550000
0!
#555000
0-
1C
16
15
b10101 Z
b10101 7
b1 U
b1 Y
b111000 &
b111000 T
b111000 ,
b10100 M
b110111 J
b110111 H
1!
#560000
0!
#565000
0-
1C
16
15
b10110 Z
b10110 7
b1 U
b1 Y
b111001 &
b111001 T
b111001 ,
b111000 H
b111000 J
b10101 M
1!
#570000
0!
#575000
0-
1C
16
15
b10111 Z
b10111 7
b1 U
b1 Y
b111010 &
b111010 T
b111010 ,
b10110 M
b111001 J
b111001 H
1!
#580000
0!
#585000
0-
1C
16
15
b11000 Z
b11000 7
b1 U
b1 Y
b111011 &
b111011 T
b111011 ,
b111010 H
b111010 J
b10111 M
1!
#590000
0!
#595000
0-
1C
16
15
b11001 Z
b11001 7
b1 U
b1 Y
b111100 &
b111100 T
b111100 ,
b11000 M
b111011 J
b111011 H
1!
#600000
0!
#605000
0-
1C
16
15
b11010 Z
b11010 7
b1 U
b1 Y
b111101 &
b111101 T
b111101 ,
b111100 H
b111100 J
b11001 M
1!
#610000
0!
#615000
0-
1C
16
15
b11011 Z
b11011 7
b1 U
b1 Y
b111110 &
b111110 T
b111110 ,
b11010 M
b111101 J
b111101 H
1!
#620000
0!
#625000
0-
1C
16
15
b11100 Z
b11100 7
b1 U
b1 Y
b111111 &
b111111 T
b111111 ,
b111110 H
b111110 J
b11011 M
1!
#630000
0!
#635000
0-
1C
16
15
b11101 Z
b11101 7
b1 U
b1 Y
b1000000 &
b1000000 T
b1000000 ,
b11100 M
b111111 J
b111111 H
1!
#640000
0!
#645000
0-
1C
16
15
b11110 Z
b11110 7
b1 U
b1 Y
b1000001 &
b1000001 T
b1000001 ,
b1000000 H
b1000000 J
b11101 M
1!
#650000
0!
#655000
1D
19
18
0-
1C
16
15
b11111 Z
b11111 7
b10 U
b1 Y
b1000010 &
b1000010 T
b1000010 ,
b11110 M
b1000001 J
b1000001 H
1!
#660000
0!
#665000
b10 ?
1F
1>
1<
1E
1;
1:
0B
04
03
b10 '
0-
0D
09
08
0C
06
05
b0 Z
b0 7
b1 U
b10 Y
b1000011 &
b1000011 T
b1000011 ,
b1000010 H
b1000010 J
b10 K
b11111 M
1!
#670000
0!
#675000
0E
0;
0:
b1 Z
b1 7
1C
16
15
1B
14
13
b1 '
0-
0F
0>
0<
b0 ?
b1 U
b10 Y
b1000100 &
b1000100 T
b1000100 ,
b0 M
b10 L
b1 K
b10 I
b1000011 J
b1000011 H
1!
#680000
0!
#685000
0-
1C
16
15
b10 Z
b10 7
b1 U
b10 Y
b1000101 &
b1000101 T
b1000101 ,
b1000100 H
b1000100 J
b1 I
b1 M
1!
#690000
0!
#695000
0-
1C
16
15
b11 Z
b11 7
b1 U
b10 Y
b1000110 &
b1000110 T
b1000110 ,
b10 M
b1000101 J
b1000101 H
1!
#700000
0!
#705000
0-
1C
16
15
b100 Z
b100 7
b1 U
b10 Y
b1000111 &
b1000111 T
b1000111 ,
b1000110 H
b1000110 J
b11 M
1!
#710000
0!
#715000
0-
1C
16
15
b101 Z
b101 7
b1 U
b10 Y
b1001000 &
b1001000 T
b1001000 ,
b100 M
b1000111 J
b1000111 H
1!
#720000
0!
#725000
0-
1C
16
15
b110 Z
b110 7
b1 U
b10 Y
b1001001 &
b1001001 T
b1001001 ,
b1001000 H
b1001000 J
b101 M
1!
#730000
0!
#735000
0-
1C
16
15
b111 Z
b111 7
b1 U
b10 Y
b1001010 &
b1001010 T
b1001010 ,
b110 M
b1001001 J
b1001001 H
1!
#740000
0!
#745000
0-
1C
16
15
b1000 Z
b1000 7
b1 U
b10 Y
b1001011 &
b1001011 T
b1001011 ,
b1001010 H
b1001010 J
b111 M
1!
#750000
0!
#755000
0-
1C
16
15
b1001 Z
b1001 7
b1 U
b10 Y
b1001100 &
b1001100 T
b1001100 ,
b1000 M
b1001011 J
b1001011 H
1!
#760000
0!
#765000
0-
1C
16
15
b1010 Z
b1010 7
b1 U
b10 Y
b1001101 &
b1001101 T
b1001101 ,
b1001100 H
b1001100 J
b1001 M
1!
#770000
0!
#775000
0-
1C
16
15
b1011 Z
b1011 7
b1 U
b10 Y
b1001110 &
b1001110 T
b1001110 ,
b1010 M
b1001101 J
b1001101 H
1!
#780000
0!
#785000
0-
1C
16
15
b1100 Z
b1100 7
b1 U
b10 Y
b1001111 &
b1001111 T
b1001111 ,
b1001110 H
b1001110 J
b1011 M
1!
#790000
0!
#795000
0-
1C
16
15
b1101 Z
b1101 7
b1 U
b10 Y
b1010000 &
b1010000 T
b1010000 ,
b1100 M
b1001111 J
b1001111 H
1!
#800000
0!
#805000
0-
1C
16
15
b1110 Z
b1110 7
b1 U
b10 Y
b1010001 &
b1010001 T
b1010001 ,
b1010000 H
b1010000 J
b1101 M
1!
#810000
0!
#815000
0-
1C
16
15
b1111 Z
b1111 7
b1 U
b10 Y
b1010010 &
b1010010 T
b1010010 ,
b1110 M
b1010001 J
b1010001 H
1!
#820000
0!
#825000
0-
1C
16
15
b10000 Z
b10000 7
b1 U
b10 Y
b1010011 &
b1010011 T
b1010011 ,
b1010010 H
b1010010 J
b1111 M
1!
#830000
0!
#835000
0-
1C
16
15
b10001 Z
b10001 7
b1 U
b10 Y
b1010100 &
b1010100 T
b1010100 ,
b10000 M
b1010011 J
b1010011 H
1!
#840000
0!
#845000
0-
1C
16
15
b10010 Z
b10010 7
b1 U
b10 Y
b1010101 &
b1010101 T
b1010101 ,
b1010100 H
b1010100 J
b10001 M
1!
#850000
0!
#855000
0-
1C
16
15
b10011 Z
b10011 7
b1 U
b10 Y
b1010110 &
b1010110 T
b1010110 ,
b10010 M
b1010101 J
b1010101 H
1!
#860000
0!
#865000
0-
1C
16
15
b10100 Z
b10100 7
b1 U
b10 Y
b1010111 &
b1010111 T
b1010111 ,
b1010110 H
b1010110 J
b10011 M
1!
#870000
0!
#875000
0-
1C
16
15
b10101 Z
b10101 7
b1 U
b10 Y
b1011000 &
b1011000 T
b1011000 ,
b10100 M
b1010111 J
b1010111 H
1!
#880000
0!
#885000
0-
1C
16
15
b10110 Z
b10110 7
b1 U
b10 Y
b1011001 &
b1011001 T
b1011001 ,
b1011000 H
b1011000 J
b10101 M
1!
#890000
0!
#895000
0-
1C
16
15
b10111 Z
b10111 7
b1 U
b10 Y
b1011010 &
b1011010 T
b1011010 ,
b10110 M
b1011001 J
b1011001 H
1!
#900000
0!
#905000
0-
1C
16
15
b11000 Z
b11000 7
b1 U
b10 Y
b1011011 &
b1011011 T
b1011011 ,
b1011010 H
b1011010 J
b10111 M
1!
#910000
0!
#915000
0-
1C
16
15
b11001 Z
b11001 7
b1 U
b10 Y
b1011100 &
b1011100 T
b1011100 ,
b11000 M
b1011011 J
b1011011 H
1!
#920000
0!
#925000
0-
1C
16
15
b11010 Z
b11010 7
b1 U
b10 Y
b1011101 &
b1011101 T
b1011101 ,
b1011100 H
b1011100 J
b11001 M
1!
#930000
0!
#935000
0-
1C
16
15
b11011 Z
b11011 7
b1 U
b10 Y
b1011110 &
b1011110 T
b1011110 ,
b11010 M
b1011101 J
b1011101 H
1!
#940000
0!
#945000
0-
1C
16
15
b11100 Z
b11100 7
b1 U
b10 Y
b1011111 &
b1011111 T
b1011111 ,
b1011110 H
b1011110 J
b11011 M
1!
#950000
0!
#955000
0-
1C
16
15
b11101 Z
b11101 7
b1 U
b10 Y
b1100000 &
b1100000 T
b1100000 ,
b11100 M
b1011111 J
b1011111 H
1!
#960000
0!
#965000
0-
1C
16
15
b11110 Z
b11110 7
b1 U
b10 Y
b1100001 &
b1100001 T
b1100001 ,
b1100000 H
b1100000 J
b11101 M
1!
#970000
0!
#975000
1D
19
18
0-
1C
16
15
b11111 Z
b11111 7
b10 U
b10 Y
b1100010 &
b1100010 T
b1100010 ,
b11110 M
b1100001 J
b1100001 H
1!
#980000
0!
#985000
b11 ?
1F
1>
1<
1E
1;
1:
0B
04
03
b10 '
0-
0D
09
08
0C
06
05
b0 Z
b0 7
b1 U
b11 Y
b1100011 &
b1100011 T
b1100011 ,
b1100010 H
b1100010 J
b10 K
b11111 M
1!
#990000
0!
#995000
0E
0;
0:
b1 Z
b1 7
1C
16
15
1B
14
13
b1 '
0-
0F
0>
0<
b0 ?
b1 U
b11 Y
b1100100 &
b1100100 T
b1100100 ,
b0 M
b11 L
b1 K
b10 I
b1100011 J
b1100011 H
1!
#1000000
0!
#1005000
0-
1C
16
15
b10 Z
b10 7
b1 U
b11 Y
b1100101 &
b1100101 T
b1100101 ,
b1100100 H
b1100100 J
b1 I
b1 M
1!
#1010000
0!
#1015000
0-
1C
16
15
b11 Z
b11 7
b1 U
b11 Y
b1100110 &
b1100110 T
b1100110 ,
b10 M
b1100101 J
b1100101 H
1!
#1020000
0!
#1025000
0-
1C
16
15
b100 Z
b100 7
b1 U
b11 Y
b1100111 &
b1100111 T
b1100111 ,
b1100110 H
b1100110 J
b11 M
1!
#1030000
0!
#1035000
0-
1C
16
15
b101 Z
b101 7
b1 U
b11 Y
b1101000 &
b1101000 T
b1101000 ,
b100 M
b1100111 J
b1100111 H
1!
#1040000
0!
#1045000
0-
1C
16
15
b110 Z
b110 7
b1 U
b11 Y
b1101001 &
b1101001 T
b1101001 ,
b1101000 H
b1101000 J
b101 M
1!
#1050000
0!
#1055000
0-
1C
16
15
b111 Z
b111 7
b1 U
b11 Y
b1101010 &
b1101010 T
b1101010 ,
b110 M
b1101001 J
b1101001 H
1!
#1060000
0!
#1065000
0-
1C
16
15
b1000 Z
b1000 7
b1 U
b11 Y
b1101011 &
b1101011 T
b1101011 ,
b1101010 H
b1101010 J
b111 M
1!
#1070000
0!
#1075000
0-
1C
16
15
b1001 Z
b1001 7
b1 U
b11 Y
b1101100 &
b1101100 T
b1101100 ,
b1000 M
b1101011 J
b1101011 H
1!
#1080000
0!
#1085000
0-
1C
16
15
b1010 Z
b1010 7
b1 U
b11 Y
b1101101 &
b1101101 T
b1101101 ,
b1101100 H
b1101100 J
b1001 M
1!
#1090000
0!
#1095000
0-
1C
16
15
b1011 Z
b1011 7
b1 U
b11 Y
b1101110 &
b1101110 T
b1101110 ,
b1010 M
b1101101 J
b1101101 H
1!
#1100000
0!
#1105000
0-
1C
16
15
b1100 Z
b1100 7
b1 U
b11 Y
b1101111 &
b1101111 T
b1101111 ,
b1101110 H
b1101110 J
b1011 M
1!
#1110000
0!
#1115000
0-
1C
16
15
b1101 Z
b1101 7
b1 U
b11 Y
b1110000 &
b1110000 T
b1110000 ,
b1100 M
b1101111 J
b1101111 H
1!
#1120000
0!
#1125000
0-
1C
16
15
b1110 Z
b1110 7
b1 U
b11 Y
b1110001 &
b1110001 T
b1110001 ,
b1110000 H
b1110000 J
b1101 M
1!
#1130000
0!
#1135000
0-
1C
16
15
b1111 Z
b1111 7
b1 U
b11 Y
b1110010 &
b1110010 T
b1110010 ,
b1110 M
b1110001 J
b1110001 H
1!
#1140000
0!
#1145000
0-
1C
16
15
b10000 Z
b10000 7
b1 U
b11 Y
b1110011 &
b1110011 T
b1110011 ,
b1110010 H
b1110010 J
b1111 M
1!
#1150000
0!
#1155000
0-
1C
16
15
b10001 Z
b10001 7
b1 U
b11 Y
b1110100 &
b1110100 T
b1110100 ,
b10000 M
b1110011 J
b1110011 H
1!
#1160000
0!
#1165000
0-
1C
16
15
b10010 Z
b10010 7
b1 U
b11 Y
b1110101 &
b1110101 T
b1110101 ,
b1110100 H
b1110100 J
b10001 M
1!
#1170000
0!
#1175000
0-
1C
16
15
b10011 Z
b10011 7
b1 U
b11 Y
b1110110 &
b1110110 T
b1110110 ,
b10010 M
b1110101 J
b1110101 H
1!
