kernelip/neuromorphix/sverilog/Neuromorphic_design.vcd
$date
	Fri Jul 19 16:27:18 2024
$end
$version
	Icarus Verilog
$end
$timescale
	1ns
$end
$scope module Neuromorphic_design_tb $end
$var wire 2 ! weight_memory_data_out [1:0] $end
$var wire 1 " input_buf_data_out $end
$var wire 32 # dbg_tick_period [31:0] $end
$var wire 1 $ dbg_tick $end
$var wire 32 % dbg_presyn_neuron_counter_num [31:0] $end
$var wire 32 & dbg_postsyn_neuron_counter_num [31:0] $end
$var wire 32 ' dbg_clk_counter [31:0] $end
$var reg 1 ( clk_i $end
$var reg 3 ) cntl_sig [2:0] $end
$var reg 1 * input_buf_data_in $end
$var reg 1 + input_buf_rd_en $end
$var reg 2 , input_buf_read_addr [1:0] $end
$var reg 1 - input_buf_wr_en $end
$var reg 1 . rst_i $end
$var reg 2 / weight_memory_data_in [1:0] $end
$var reg 1 0 weight_memory_rd_en $end
$var reg 1 1 weight_memory_wr_en $end
$scope module uut $end
$var wire 1 ( clk_i $end
$var wire 3 2 cntl_sig [2:0] $end
$var wire 1 * input_buf_data_in $end
$var wire 1 + input_buf_rd_en $end
$var wire 2 3 input_buf_read_addr [1:0] $end
$var wire 1 - input_buf_wr_en $end
$var wire 1 4 output_buf_data_in $end
$var wire 1 5 output_buf_rd_en $end
$var wire 2 6 output_buf_read_addr [1:0] $end
$var wire 1 7 output_buf_wr_en $end
$var wire 1 . rst_i $end
$var wire 2 8 weight_memory_data_in [1:0] $end
$var wire 1 0 weight_memory_rd_en $end
$var wire 2 9 weight_memory_read_addr [1:0] $end
$var wire 1 1 weight_memory_wr_en $end
$var reg 32 : clk_counter [31:0] $end
$var reg 32 ; dbg_clk_counter [31:0] $end
$var reg 32 < dbg_postsyn_neuron_counter_num [31:0] $end
$var reg 32 = dbg_presyn_neuron_counter_num [31:0] $end
$var reg 1 $ dbg_tick $end
$var reg 32 > dbg_tick_period [31:0] $end
$var reg 32 ? dynamic_mem_counter_num [31:0] $end
$var reg 1 @ gen0_rtl_var $end
$var reg 1 A gen100_cyclix_genvar $end
$var reg 1 B gen101_cyclix_genvar $end
$var reg 1 C gen102_cyclix_genvar $end
$var reg 1 D gen103_cyclix_genvar $end
$var reg 1 E gen104_cyclix_genvar $end
$var reg 1 F gen105_cyclix_genvar $end
$var reg 33 G gen106_cyclix_genvar [32:0] $end
$var reg 1 H gen107_cyclix_genvar $end
$var reg 1 I gen108_cyclix_genvar $end
$var reg 1 J gen109_cyclix_genvar $end
$var reg 1 K gen10_rtl_var $end
$var reg 1 L gen11_rtl_var $end
$var reg 1 M gen12_rtl_var $end
$var reg 1 N gen13_rtl_var $end
$var reg 1 O gen14_rtl_var $end
$var reg 1 P gen15_rtl_var $end
$var reg 1 Q gen16_rtl_var $end
$var reg 1 R gen17_rtl_var $end
$var reg 1 S gen18_rtl_var $end
$var reg 1 T gen19_rtl_var $end
$var reg 1 U gen1_rtl_var $end
$var reg 1 V gen20_rtl_var $end
$var reg 1 W gen21_rtl_var $end
$var reg 1 X gen22_rtl_var $end
$var reg 1 Y gen23_rtl_var $end
$var reg 1 Z gen24_rtl_var $end
$var reg 1 [ gen25_rtl_var $end
$var reg 1 \ gen2_rtl_var $end
$var reg 1 ] gen3_rtl_var $end
$var reg 1 ^ gen4_rtl_var $end
$var reg 1 _ gen55_cyclix_genvar $end
$var reg 1 ` gen56_cyclix_genvar $end
$var reg 33 a gen57_cyclix_genvar [32:0] $end
$var reg 1 b gen58_cyclix_genvar $end
$var reg 1 c gen59_cyclix_genvar $end
$var reg 1 d gen5_rtl_var $end
$var reg 1 e gen60_cyclix_genvar $end
$var reg 1 f gen61_cyclix_genvar $end
$var reg 33 g gen62_cyclix_genvar [32:0] $end
$var reg 1 h gen63_cyclix_genvar $end
$var reg 1 i gen64_cyclix_genvar $end
$var reg 1 j gen65_cyclix_genvar $end
$var reg 1 k gen66_cyclix_genvar $end
$var reg 33 l gen67_cyclix_genvar [32:0] $end
$var reg 1 m gen68_cyclix_genvar $end
$var reg 1 n gen69_cyclix_genvar $end
$var reg 1 o gen6_rtl_var $end
$var reg 1 p gen70_cyclix_genvar $end
$var reg 1 q gen71_cyclix_genvar $end
$var reg 1 r gen72_cyclix_genvar $end
$var reg 1 s gen73_cyclix_genvar $end
$var reg 1 t gen74_cyclix_genvar $end
$var reg 1 u gen75_cyclix_genvar $end
$var reg 1 v gen76_cyclix_genvar $end
$var reg 33 w gen77_cyclix_genvar [32:0] $end
$var reg 1 x gen78_cyclix_genvar $end
$var reg 33 y gen79_cyclix_genvar [32:0] $end
$var reg 1 z gen7_rtl_var $end
$var reg 1 { gen80_cyclix_genvar $end
$var reg 1 | gen81_cyclix_genvar $end
$var reg 1 } gen82_cyclix_genvar $end
$var reg 1 ~ gen83_cyclix_genvar $end
$var reg 1 !" gen84_cyclix_genvar $end
$var reg 1 "" gen85_cyclix_genvar $end
$var reg 1 #" gen86_cyclix_genvar $end
$var reg 1 $" gen87_cyclix_genvar $end
$var reg 1 %" gen88_cyclix_genvar $end
$var reg 1 &" gen89_cyclix_genvar $end
$var reg 1 '" gen8_rtl_var $end
$var reg 1 (" gen90_cyclix_genvar $end
$var reg 1 )" gen91_cyclix_genvar $end
$var reg 1 *" gen92_cyclix_genvar $end
$var reg 1 +" gen93_cyclix_genvar $end
$var reg 1 ," gen94_cyclix_genvar $end
$var reg 1 -" gen95_cyclix_genvar $end
$var reg 1 ." gen96_cyclix_genvar $end
$var reg 1 /" gen97_cyclix_genvar $end
$var reg 33 0" gen98_cyclix_genvar [32:0] $end
$var reg 33 1" gen99_cyclix_genvar [32:0] $end
$var reg 1 2" gen9_rtl_var $end
$var reg 32 3" gensticky_clk_counter [31:0] $end
$var reg 32 4" gensticky_dynamic_mem_counter_num [31:0] $end
$var reg 32 5" gensticky_input_buf_counter_num [31:0] $end
$var reg 2 6" gensticky_input_buf_wr_ptr [1:0] $end
$var reg 32 7" gensticky_leakage [31:0] $end
$var reg 32 8" gensticky_next_clk_count [31:0] $end
$var reg 32 9" gensticky_next_dynamic_mem_counter_num [31:0] $end
$var reg 32 :" gensticky_next_input_buf_counter_num [31:0] $end
$var reg 32 ;" gensticky_next_neuron_num [31:0] $end
$var reg 32 <" gensticky_next_postsyn_neuron_num [31:0] $end
$var reg 2 =" gensticky_output_buf_wr_ptr [1:0] $end
$var reg 32 >" gensticky_postsyn_neuron_counter_num [31:0] $end
$var reg 32 ?" gensticky_presyn_neuron_counter_num [31:0] $end
$var reg 3 @" gensticky_reg_cntl_counter_sig [2:0] $end
$var reg 3 A" gensticky_reg_cntl_sig [2:0] $end
$var reg 1 B" gensticky_reg_input_buf_rd_en $end
$var reg 1 C" gensticky_reg_input_buf_wr_en $end
$var reg 1 D" gensticky_reg_output_buf_rd_en $end
$var reg 1 E" gensticky_reg_output_buf_wr_en $end
$var reg 1 F" gensticky_reg_weight_memory_rd_en $end
$var reg 1 G" gensticky_reg_weight_memory_wr_en $end
$var reg 32 H" gensticky_threshold [31:0] $end
$var reg 32 I" gensticky_tick [31:0] $end
$var reg 32 J" gensticky_tick_period [31:0] $end
$var reg 32 K" input_buf_counter_num [31:0] $end
$var reg 1 " input_buf_data_out $end
$var reg 2 L" input_buf_wr_ptr [1:0] $end
$var reg 32 M" leakage [31:0] $end
$var reg 32 N" next_clk_count [31:0] $end
$var reg 32 O" next_dynamic_mem_counter_num [31:0] $end
$var reg 32 P" next_input_buf_counter_num [31:0] $end
$var reg 32 Q" next_neuron_num [31:0] $end
$var reg 32 R" next_postsyn_neuron_num [31:0] $end
$var reg 1 S" output_buf_data_out $end
$var reg 2 T" output_buf_wr_ptr [1:0] $end
$var reg 32 U" postsyn_neuron_counter_num [31:0] $end
$var reg 32 V" presyn_neuron_counter_num [31:0] $end
$var reg 3 W" reg_cntl_counter_sig [2:0] $end
$var reg 3 X" reg_cntl_sig [2:0] $end
$var reg 1 Y" reg_input_buf_rd_en $end
$var reg 1 Z" reg_input_buf_wr_en $end
$var reg 1 [" reg_output_buf_rd_en $end
$var reg 1 \" reg_output_buf_wr_en $end
$var reg 1 ]" reg_weight_memory_rd_en $end
$var reg 1 ^" reg_weight_memory_wr_en $end
$var reg 32 _" threshold [31:0] $end
$var reg 32 `" tick [31:0] $end
$var reg 32 a" tick_period [31:0] $end
$var reg 2 b" weight_memory_data_out [1:0] $end
$upscope $end
$scope begin $ivl_for_loop0 $end
$var integer 32 c" i [31:0] $end
$upscope $end
$scope begin $ivl_for_loop1 $end
$var integer 32 d" i [31:0] $end
$upscope $end
$scope begin $ivl_for_loop2 $end
$var integer 32 e" i [31:0] $end
$upscope $end
$scope begin $ivl_for_loop3 $end
$var integer 32 f" i [31:0] $end
$upscope $end
$upscope $end
$enddefinitions $end
#0
$dumpvars
b0 f"
b0 e"
b0 d"
b0 c"
b0 b"
b111110100 a"
bx `"
b10 _"
x^"
x]"
z\"
z["
xZ"
xY"
bx X"
bx W"
bx V"
bx U"
bx T"
0S"
bx R"
bx Q"
bx P"
bx O"
bx N"
b1 M"
bx L"
bx K"
bx J"
bx I"
bx H"
xG"
xF"
xE"
xD"
xC"
xB"
bx A"
bx @"
bx ?"
bx >"
bx ="
bx <"
bx ;"
bx :"
bx 9"
bx 8"
bx 7"
bx 6"
bx 5"
bx 4"
bx 3"
02"
b0 1"
b0 0"
0/"
0."
0-"
0,"
0+"
0*"
x)"
x("
0'"
0&"
0%"
x$"
x#"
0""
0!"
x~
x}
x|
x{
xz
b0 y
0x
b0 w
0v
0u
0t
0s
xr
xq
xp
xo
xn
xm
b0 l
xk
xj
xi
xh
b0 g
xf
xe
xd
xc
xb
b0 a
x`
x_
x^
x]
x\
0[
0Z
0Y
0X
0W
0V
xU
0T
0S
0R
xQ
0P
xO
0N
xM
xL
0K
0J
0I
0H
b0 G
0F
0E
0D
0C
0B
0A
x@
bx ?
b111110100 >
bx =
bx <
bx ;
bx :
bz 9
bx 8
z7
bz 6
z5
z4
bx 3
bx 2
x1
x0
bx /
1.
x-
bx ,
x+
x*
bx )
0(
bx '
bx &
bx %
x$
b111110100 #
0"
b0 !
$end
#5000000
0z
0r
0q
1o
1p
1n
b0 &
b0 <
b0 %
b0 =
b1 '
b1 ;
0$
0d
0m
b1 l
1^
1k
1j
bx X"
x]"
x^"
z["
z\"
xY"
xZ"
b0 ?
b0 O"
b0 K"
b0 P"
b0 W"
b0 R"
b0 Q"
b0 V"
b0 U"
b1 :
b1 N"
b0 `"
b0 T"
b0 L"
b0 6"
0C"
0B"
b0 ="
0E"
0D"
b0 I"
b111110100 J"
b0 3"
b0 8"
b0 ?"
b0 ;"
b0 >"
b0 <"
b0 @"
0G"
0F"
b0 A"
b0 5"
b0 :"
b0 4"
b0 9"
b1 7"
b10 H"
1(
#10000000
0Q
0)"
0("
0O
0$"
0#"
0M
0~
0}
1L
1|
1{
0m
0\
0f
0e
0U
0c
0b
0@
0`
0_
b0 X"
0]"
0^"
z["
z\"
0Y"
0Z"
b1 :
b1 N"
b1 l
0(
00
01
b0 )
b0 2
0+
b0 ,
b0 3
0*
0-
0.
#15000000
b10 '
b10 ;
0m
b10 :
b10 N"
b10 l
b1 8"
b1 3"
zD"
zE"
1(
#20000000
0(
#25000000
b11 '
b11 ;
0m
b11 :
b11 N"
b11 l
b10 3"
b10 8"
1(
#30000000
0m
b1 T"
b1 g
1\
1f
1e
b1 L"
b1 a
1@
1`
1_
1Z"
b11 :
b11 N"
b11 l
0(
b1 c"
1*
1-
#35000000
b100 '
b100 ;
0m
b100 :
b100 N"
b100 l
b10 T"
b10 g
b10 L"
b10 a
b11 8"
b11 3"
b1 ="
1C"
b1 6"
1(
#40000000
0m
b100 :
b100 N"
b100 l
b10 T"
b10 g
b10 L"
b10 a
0(
b10 c"
0*
#45000000
b101 '
b101 ;
0m
b101 :
b101 N"
b101 l
b11 T"
b11 g
b11 L"
b11 a
b10 6"
b10 ="
b100 3"
b100 8"
1(
#50000000
0m
b101 :
b101 N"
b101 l
b11 T"
b11 g
b11 L"
b11 a
0(
b11 c"
1*
#55000000
b110 '
b110 ;
0m
b110 :
b110 N"
b110 l
b0 T"
b100 g
b0 L"
b100 a
b101 8"
b101 3"
b11 ="
b11 6"
1(
#60000000
0m
b0 T"
b0 L"
b110 :
b110 N"
b110 l
b100 g
b100 a
0(
b100 c"
0*
#65000000
b111 '
b111 ;
0m
b1 T"
b1 L"
b111 :
b111 N"
b111 l
b1 g
b1 a
b0 6"
b0 ="
b110 3"
b110 8"
1(
#70000000
0m
0\
0f
0e
0@
0`
0_
0Z"
b111 :
b111 N"
b111 l
b0 T"
b0 g
b0 L"
b0 a
0(
0-
#75000000
b1000 '
b1000 ;
0m
b1000 :
b1000 N"
b1000 l
b111 8"
b111 3"
0C"
1(
#80000000
0(
#85000000
b1001 '
b1001 ;
0m
b1001 :
b1001 N"
b1001 l
b1000 3"
b1000 8"
1(
#90000000
0m
1"
1U
1c
1b
1Y"
b1001 :
b1001 N"
b1001 l
0(
b1 d"
1+
#95000000
b1010 '
b1010 ;
0m
b1010 :
b1010 N"
b1010 l
1"
b1001 8"
b1001 3"
1B"
1(
#100000000
0m
b1010 :
b1010 N"
b1010 l
0"
0(
b10 d"
b1 ,
b1 3
#105000000
b1011 '
b1011 ;
0m
b1011 :
b1011 N"
b1011 l
b1010 3"
b1010 8"
1(
#110000000
0m
1"
b1011 :
b1011 N"
b1011 l
0(
b11 d"
b10 ,
b10 3
#115000000
b1100 '
b1100 ;
0m
b1100 :
b1100 N"
b1100 l
1"
b1011 8"
b1011 3"
1(
#120000000
0m
b1100 :
b1100 N"
b1100 l
0"
0(
b100 d"
b11 ,
b11 3
#125000000
b1101 '
b1101 ;
0m
b1101 :
b1101 N"
b1101 l
b1100 3"
b1100 8"
1(
#130000000
0(
#135000000
b1110 '
b1110 ;
0m
b1110 :
b1110 N"
b1110 l
b1101 8"
b1101 3"
1(
#140000000
1N
1""
1!"
b1 W"
1M
1~
1}
0L
0|
0{
b1 X"
1^"
0m
b1110 :
b1110 N"
b1110 l
0(
11
b1 )
b1 2
#145000000
0x
b1 V"
b1 Q"
b1 w
12"
1v
1u
1'"
1t
1s
1z
1r
1q
0o
0p
0n
b1111 '
b1111 ;
0m
1N
1""
1!"
b1 W"
b1111 :
b1111 N"
b1111 l
b1110 3"
b1110 8"
b1 @"
1G"
b1 A"
1(
#150000000
0x
0m
1N
1""
1!"
b1 W"
1'"
1t
1s
12"
1v
1u
b1 Q"
b1 w
b1 V"
b1111 :
b1111 N"
b1111 l
0(
b1 /
b1 8
#155000000
0x
b1 %
b1 =
b10000 '
b10000 ;
0m
1N
1""
1!"
b1 W"
1'"
1t
1s
12"
1v
1u
b10 Q"
b10 w
b10 V"
b10000 :
b10000 N"
b10000 l
b1 ;"
b1 ?"
b1111 8"
b1111 3"
1(
#160000000
0(
b1 e"
#165000000
0x
b10 %
b10 =
b10001 '
b10001 ;
0m
1N
1""
1!"
b1 W"
1'"
1t
1s
12"
1v
1u
b11 Q"
b11 w
b11 V"
b10001 :
b10001 N"
b10001 l
b10000 3"
b10000 8"
b10 ?"
b10 ;"
1(
#170000000
0x
0m
1N
1""
1!"
b1 W"
1'"
1t
1s
12"
1v
1u
b11 Q"
b11 w
b11 V"
b10001 :
b10001 N"
b10001 l
0(
b11 /
b11 8
b10 e"
#175000000
0x
b11 %
b11 =
b10010 '
b10010 ;
0m
1N
1""
1!"
b1 W"
1'"
1t
1s
12"
1v
1u
b100 Q"
b100 w
b100 V"
b10010 :
b10010 N"
b10010 l
b11 ;"
b11 ?"
b10001 8"
b10001 3"
1(
#180000000
0(
b11 e"
#185000000
b1 U"
b1 R"
b1 y
1K
1x
b100 %
b100 =
b10011 '
b10011 ;
0m
1N
1""
1!"
b1 W"
1'"
1t
1s
02"
0v
0u
b100 Q"
b0 w
b0 V"
b10011 :
b10011 N"
b10011 l
b10010 3"
b10010 8"
b100 ?"
b100 ;"
1(
#190000000
0m
b0 V"
1N
1""
1!"
b1 W"
1'"
1t
1s
1K
1x
b1 R"
b1 y
b100 Q"
b1 U"
b10011 :
b10011 N"
b10011 l
0(
b1 /
b1 8
b100 e"
#195000000
b1 V"
b1 w
12"
1v
1u
b1 &
b1 <
b0 %
b0 =
b10100 '
b10100 ;
0m
1N
1""
1!"
b1 W"
1'"
1t
1s
0K
0x
b1 R"
b0 y
b1 Q"
b1 U"
b10100 :
b10100 N"
b10100 l
b1 <"
b1 >"
b0 ?"
b10011 8"
b10011 3"
1(
#200000000
0(
b101 e"
#205000000
0x
b1 %
b1 =
b10101 '
b10101 ;
0m
1N
1""
1!"
b1 W"
1'"
1t
1s
12"
1v
1u
b1 R"
b10 Q"
b10 w
b10 V"
b1 U"
b10101 :
b10101 N"
b10101 l
b10100 3"
b10100 8"
b1 ?"
b1 ;"
1(
#210000000
0x
0m
1N
1""
1!"
b1 W"
1'"
1t
1s
12"
1v
1u
b1 R"
b10 Q"
b10 w
b10 V"
b1 U"
b10101 :
b10101 N"
b10101 l
0(
b11 /
b11 8
b110 e"
#215000000
0x
b10 %
b10 =
b10110 '
b10110 ;
0m
1N
1""
1!"
b1 W"
1'"
1t
1s
12"
1v
1u
b1 R"
b11 Q"
b11 w
b11 V"
b1 U"
b10110 :
b10110 N"
b10110 l
b10 ;"
b10 ?"
b10101 8"
b10101 3"
1(
#220000000
0(
b111 e"
#225000000
0x
b11 %
b11 =
b10111 '
b10111 ;
0m
1N
1""
1!"
b1 W"
1'"
1t
1s
12"
1v
1u
b1 R"
b100 Q"
b100 w
b100 V"
b1 U"
b10111 :
b10111 N"
b10111 l
b10110 3"
b10110 8"
b11 ?"
b11 ;"
1(
#230000000
0x
0m
1N
1""
1!"
b1 W"
1'"
1t
1s
12"
1v
1u
b1 R"
b100 Q"
b100 w
b100 V"
b1 U"
b10111 :
b10111 N"
b10111 l
0(
b1 /
b1 8
b1000 e"
#235000000
b10 y
1K
1x
b100 %
b100 =
b11000 '
b11000 ;
0m
1N
1""
1!"
b1 W"
1'"
1t
1s
02"
0v
0u
b10 R"
b100 Q"
b0 w
b0 V"
b10 U"
b11000 :
b11000 N"
b11000 l
b100 ;"
b100 ?"
b10111 8"
b10111 3"
1(
#240000000
0(
b1001 e"
#245000000
b1 V"
b1 w
12"
1v
1u
b10 &
b10 <
b0 %
b0 =
b11001 '
b11001 ;
0m
1N
1""
1!"
b1 W"
1'"
1t
1s
0K
0x
b10 R"
b0 y
b1 Q"
b10 U"
b11001 :
b11001 N"
b11001 l
b11000 3"
b11000 8"
b0 ?"
b10 >"
b10 <"
1(
#250000000
0x
0m
1N
1""
1!"
b1 W"
1'"
1t
1s
12"
1v
1u
b10 R"
b1 Q"
b1 w
b1 V"
b10 U"
b11001 :
b11001 N"
b11001 l
0(
b11 /
b11 8
b1010 e"
#255000000
0x
b1 %
b1 =
b11010 '
b11010 ;
0m
1N
1""
1!"
b1 W"
1'"
1t
1s
12"
1v
1u
b10 R"
b10 Q"
b10 w
b10 V"
b10 U"
b11010 :
b11010 N"
b11010 l
b1 ;"
b1 ?"
b11001 8"
b11001 3"
1(
#260000000
0(
b1011 e"
#265000000
0x
b10 %
b10 =
b11011 '
b11011 ;
0m
1N
1""
1!"
b1 W"
1'"
1t
1s
12"
1v
1u
b10 R"
b11 Q"
b11 w
b11 V"
b10 U"
b11011 :
b11011 N"
b11011 l
b11010 3"
b11010 8"
b10 ?"
b10 ;"
1(
#270000000
0x
0m
1N
1""
1!"
b1 W"
1'"
1t
1s
12"
1v
1u
b10 R"
b11 Q"
b11 w
b11 V"
b10 U"
b11011 :
b11011 N"
b11011 l
0(
b1 /
b1 8
b1100 e"
#275000000
0x
b11 %
b11 =
b11100 '
b11100 ;
0m
1N
1""
1!"
b1 W"
1'"
1t
1s
12"
1v
1u
b10 R"
b100 Q"
b100 w
b100 V"
b10 U"
b11100 :
b11100 N"
b11100 l
b11 ;"
b11 ?"
b11011 8"
b11011 3"
1(
#280000000
0(
b1101 e"
#285000000
b11 y
1K
1x
b100 %
b100 =
b11101 '
b11101 ;
0m
1N
1""
1!"
b1 W"
1'"
1t
1s
02"
0v
0u
b11 R"
b100 Q"
b0 w
b0 V"
b11 U"
b11101 :
b11101 N"
b11101 l
b11100 3"
b11100 8"
b100 ?"
b100 ;"
1(
#290000000
0m
b0 V"
1N
1""
1!"
b1 W"
1'"
1t
1s
1K
1x
b11 R"
b11 y
b100 Q"
b11 U"
b11101 :
b11101 N"
b11101 l
0(
b11 /
b11 8
b1110 e"
#295000000
b1 V"
b1 w
12"
1v
1u
b11 &
b11 <
b0 %
b0 =
b11110 '
b11110 ;
0m
1N
1""
1!"
b1 W"
1'"
1t
1s
0K
0x
b11 R"
b0 y
b1 Q"
b11 U"
b11110 :
b11110 N"
b11110 l
b11 <"
b11 >"
b0 ?"
b11101 8"
b11101 3"
1(
#300000000
0(
b1111 e"
#305000000
0x
b1 %
b1 =
b11111 '
b11111 ;
0m
1N
1""
1!"
b1 W"
1'"
1t
1s
12"
1v
1u
b11 R"
b10 Q"
b10 w
b10 V"
b11 U"
b11111 :
b11111 N"
b11111 l
b11110 3"
b11110 8"
b1 ?"
b1 ;"
1(
#310000000
0x
0m
1N
1""
1!"
b1 W"
1'"
1t
1s
12"
1v
1u
b11 R"
b10 Q"
b10 w
b10 V"
b11 U"
b11111 :
b11111 N"
b11111 l
0(
b1 /
b1 8
b10000 e"
#315000000
0x
b10 %
b10 =
b100000 '
b100000 ;
0m
1N
1""
1!"
b1 W"
1'"
1t
1s
12"
1v
1u
b11 R"
b11 Q"
b11 w
b11 V"
b11 U"
b100000 :
b100000 N"
b100000 l
b10 ;"
b10 ?"
b11111 8"
b11111 3"
1(
#320000000
0(
b10001 e"
#325000000
0x
b11 %
b11 =
b100001 '
b100001 ;
0m
1N
1""
1!"
b1 W"
1'"
1t
1s
12"
1v
1u
b11 R"
b100 Q"
b100 w
b100 V"
b11 U"
b100001 :
b100001 N"
b100001 l
b100000 3"
b100000 8"
b11 ?"
b11 ;"
1(
#330000000
0x
0m
1N
1""
1!"
b1 W"
1'"
1t
1s
12"
1v
1u
b11 R"
b100 Q"
b100 w
b100 V"
b11 U"
b100001 :
b100001 N"
b100001 l
0(
b11 /
b11 8
b10010 e"
#335000000
b100 y
1K
1x
b100 %
b100 =
b100010 '
b100010 ;
0m
1N
1""
1!"
b1 W"
1'"
1t
1s
02"
0v
0u
b100 R"
b100 Q"
b0 w
b0 V"
b100 U"
b100010 :
b100010 N"
b100010 l
b100 ;"
b100 ?"
b100001 8"
b100001 3"
1(
#340000000
0(
b10011 e"
#345000000
b100 &
b100 <
b0 %
b0 =
b100011 '
b100011 ;
0m
1N
1""
1!"
b1 W"
0'"
0t
0s
0K
0x
b100 R"
b0 y
b100 Q"
b100 U"
b100011 :
b100011 N"
b100011 l
b100010 3"
b100010 8"
b0 ?"
b100 >"
b100 <"
1(
#350000000
0m
1N
1""
1!"
b1 W"
b100 R"
b100 Q"
b100 U"
b100011 :
b100011 N"
b100011 l
0(
b1 /
b1 8
b10100 e"
#355000000
b100100 '
b100100 ;
0m
1N
1""
1!"
b1 W"
b100 R"
b100 Q"
b100 U"
b100100 :
b100100 N"
b100100 l
b100011 8"
b100011 3"
1(
#360000000
0(
b10101 e"
#365000000
b100101 '
b100101 ;
0m
1N
1""
1!"
b1 W"
b100 R"
b100 Q"
b100 U"
b100101 :
b100101 N"
b100101 l
b100100 3"
b100100 8"
1(
#370000000
0m
1N
1""
1!"
b1 W"
b100 R"
b100 Q"
b100 U"
b100101 :
b100101 N"
b100101 l
0(
b11 /
b11 8
b10110 e"
#375000000
b100110 '
b100110 ;
0m
1N
1""
1!"
b1 W"
b100 R"
b100 Q"
b100 U"
b100110 :
b100110 N"
b100110 l
b100101 8"
b100101 3"
1(
#380000000
0(
b10111 e"
#385000000
b100111 '
b100111 ;
0m
1N
1""
1!"
b1 W"
b100 R"
b100 Q"
b100 U"
b100111 :
b100111 N"
b100111 l
b100110 3"
b100110 8"
1(
#390000000
0m
1N
1""
1!"
b1 W"
b100 R"
b100 Q"
b100 U"
b100111 :
b100111 N"
b100111 l
0(
b1 /
b1 8
b11000 e"
#395000000
b101000 '
b101000 ;
0m
1N
1""
1!"
b1 W"
b100 R"
b100 Q"
b100 U"
b101000 :
b101000 N"
b101000 l
b100111 8"
b100111 3"
1(
#400000000
0(
b11001 e"
#405000000
b101001 '
b101001 ;
0m
1N
1""
1!"
b1 W"
b100 R"
b100 Q"
b100 U"
b101001 :
b101001 N"
b101001 l
b101000 3"
b101000 8"
1(
#410000000
0^"
0m
0N
0""
0!"
b1 W"
b100 R"
b100 Q"
b100 U"
b101001 :
b101001 N"
b101001 l
0(
01
#415000000
b101010 '
b101010 ;
0m
b1 W"
b100 R"
b100 Q"
b100 U"
b101010 :
b101010 N"
b101010 l
0G"
b101001 8"
b101001 3"
1(
#420000000
0M
0~
0}
1L
1|
1{
b0 X"
0m
b0 W"
b100 R"
b100 Q"
b100 U"
b101010 :
b101010 N"
b101010 l
0(
b0 )
b0 2
#425000000
0z
0r
0q
1o
1p
1n
b101011 '
b101011 ;
0m
b100 R"
b100 Q"
b0 U"
b101011 :
b101011 N"
b101011 l
b101010 3"
b101010 8"
b0 @"
b0 A"
1(
#430000000
b1 W"
1O
1$"
1#"
0L
0|
0{
b10 X"
0m
b0 U"
b100 R"
b100 Q"
b101011 :
b101011 N"
b101011 l
0(
b10 )
b10 2
#435000000
0x
b1 V"
b1 w
12"
1v
1u
1'"
1t
1s
1z
1r
1q
0o
0p
0n
b0 &
b0 <
b101100 '
b101100 ;
0m
b1 W"
b100 R"
b1 Q"
b101100 :
b101100 N"
b101100 l
b10 A"
b1 @"
b0 >"
b101011 8"
b101011 3"
1(
#440000000
b1 !
b1 b"
1P
1&"
1%"
1]"
0x
0m
b1 W"
1'"
1t
1s
12"
1v
1u
b100 R"
b1 Q"
b1 w
b1 V"
b101100 :
b101100 N"
b101100 l
0(
b1 f"
10
#445000000
0x
b1 %
b1 =
b101101 '
b101101 ;
0m
1P
1&"
1%"
b1 !
b1 b"
b1 W"
1'"
1t
1s
12"
1v
1u
b100 R"
b10 Q"
b10 w
b10 V"
b101101 :
b101101 N"
b101101 l
b101100 3"
b101100 8"
b1 ?"
b1 ;"
1F"
1(
#450000000
0(
b10 f"
#455000000
0x
b10 %
b10 =
b101110 '
b101110 ;
0m
1P
1&"
1%"
b11 !
b11 b"
b1 W"
1'"
1t
1s
12"
1v
1u
b100 R"
b11 Q"
b11 w
b11 V"
b101110 :
b101110 N"
b101110 l
b10 ;"
b10 ?"
b101101 8"
b101101 3"
1(
#460000000
0(
b11 f"
#465000000
0x
b11 %
b11 =
b101111 '
b101111 ;
0m
1P
1&"
1%"
b1 !
b1 b"
b1 W"
1'"
1t
1s
12"
1v
1u
b100 R"
b100 Q"
b100 w
b100 V"
b101111 :
b101111 N"
b101111 l
b101110 3"
b101110 8"
b11 ?"
b11 ;"
1(
#470000000
0(
b100 f"
#475000000
b1 U"
b1 y
1K
1x
b100 %
b100 =
b110000 '
b110000 ;
0m
1P
1&"
1%"
b1 !
b1 b"
b1 W"
1'"
1t
1s
02"
0v
0u
b1 R"
b100 Q"
b0 w
b0 V"
b110000 :
b110000 N"
b110000 l
b100 ;"
b100 ?"
b101111 8"
b101111 3"
1(
#480000000
0(
b101 f"
#485000000
b1 V"
b1 w
12"
1v
1u
b1 &
b1 <
b0 %
b0 =
b110001 '
b110001 ;
0m
1P
1&"
1%"
b1 !
b1 b"
b1 W"
1'"
1t
1s
0K
0x
b1 R"
b0 y
b1 Q"
b1 U"
b110001 :
b110001 N"
b110001 l
b110000 3"
b110000 8"
b0 ?"
b1 >"
b1 <"
1(
#490000000
0(
b110 f"
#495000000
0x
b1 %
b1 =
b110010 '
b110010 ;
0m
1P
1&"
1%"
b11 !
b11 b"
b1 W"
1'"
1t
1s
12"
1v
1u
b1 R"
b10 Q"
b10 w
b10 V"
b1 U"
b110010 :
b110010 N"
b110010 l
b1 ;"
b1 ?"
b110001 8"
b110001 3"
1(
#500000000
0(
b111 f"
#505000000
0x
b10 %
b10 =
b110011 '
b110011 ;
0m
1P
1&"
1%"
b11 !
b11 b"
b1 W"
1'"
1t
1s
12"
1v
1u
b1 R"
b11 Q"
b11 w
b11 V"
b1 U"
b110011 :
b110011 N"
b110011 l
b110010 3"
b110010 8"
b10 ?"
b10 ;"
1(
#510000000
0(
b1000 f"
#515000000
0x
b11 %
b11 =
b110100 '
b110100 ;
0m
1P
1&"
1%"
b1 !
b1 b"
b1 W"
1'"
1t
1s
12"
1v
1u
b1 R"
b100 Q"
b100 w
b100 V"
b1 U"
b110100 :
b110100 N"
b110100 l
b11 ;"
b11 ?"
b110011 8"
b110011 3"
1(
#520000000
0(
b1001 f"
#525000000
b10 y
1K
1x
b100 %
b100 =
b110101 '
b110101 ;
0m
1P
1&"
1%"
b1 !
b1 b"
b1 W"
1'"
1t
1s
02"
0v
0u
b10 R"
b100 Q"
b0 w
b0 V"
b10 U"
b110101 :
b110101 N"
b110101 l
b110100 3"
b110100 8"
b100 ?"
b100 ;"
1(
#530000000
0(
b1010 f"
#535000000
b1 V"
b1 w
12"
1v
1u
b10 &
b10 <
b0 %
b0 =
b110110 '
b110110 ;
0m
1P
1&"
1%"
b11 !
b11 b"
b1 W"
1'"
1t
1s
0K
0x
b10 R"
b0 y
b1 Q"
b10 U"
b110110 :
b110110 N"
b110110 l
b10 <"
b10 >"
b0 ?"
b110101 8"
b110101 3"
1(
#540000000
0(
b1011 f"
